id,speed_fill,speed_pump,steps_start,steps_pump,dispense_small,dispense_medium,dispense_large,concentrate_small,concentrate_medium,concentrate_large,buttton_setup
1,1999.8,606,401,600,2,3,4,1,2,3,0
2,1999.8,606,402,600,2,3,4,1,2,3,0
3,1999.8,606,403,600,2,3,4,1,2,3,0
4,1999.8,606,404,600,2,3,4,1,2,3,0
