product_id|ratio|brix|daily_rinse|concentrate_rinse|brand_english|brand_french|category_english|category_french|product_name_english|product_name_french
10000937|4:1|0.7|No|No|NESTLE VITALITY|NESTLE VITALITY|Lemon Drink|Boisson au citron|Lite Lemonade|Limonade légère
10000676|4:1|11.8|No|No|NESTLE VITALITY|NESTLE VITALITY|Juice|Jus|Orange|Orange 
12306049|4:1|10.5|No|No|NESTLE VITALITY|NESTLE VITALITY|Juice|Jus|Orange|Orange 
10000963|4:1|11.5|No|No|NESTLE VITALITY|NESTLE VITALITY|Juice|Jus|Cranberry|Canneberge 
12279900|5:1|3.5|No|No|NESTLE VITALITY|NESTLE VITALITY|Flavored Water|Eau aromatisée|Cucumber Mint|Concombre-menthe 
10000691|4:1|11.8|No|No|NESTLE VITALITY|NESTLE VITALITY|Juice|Jus|Orange|Orange
12159439|4:1|12.6|No|No|NESTLE VITALITY|NESTLE VITALITY|Juice|Jus|Passion Orange Guava|Fruit de la passion, orange et goyave  
12279886|5:1|3.5|No|No|NESTLE VITALITY|NESTLE VITALITY|Flavored Water|Eau aromatisée|Strawberry Basil|Fraise-basilic 
10000706|5:1|13|No|No|NESTLE VITALITY|NESTLE VITALITY|Juice|Jus|Passion Orange Guava|Fruit de la passion, orange et goyave
10000649|5:1|11.5|No|No|SUNKIST|SUNKIST|Juice|Jus|Apple|Pomme
10000707|5:1|0.3|No|No|SUNKIST|SUNKIST|Flavored Water|Eau aromatisée|Blueberry Pomegranate Acai|Bleuet, grenade et açai
12306060|5:1|11.2|No|No|SUNKIST|SUNKIST|Juice Drink|Boisson au jus|Citrus Peach|Agrumes et pêche 
12306070|4:1|10.6|No|No|SUNKIST|SUNKIST|Juice Drink|Boisson au jus|Cranberry|Canneberge 
10000708|5:1|0.3|No|No|SUNKIST|SUNKIST|Flavored Water|Eau aromatisée|Grape Raspberry|Raisin-framboise
12305400|5:1|8.3|No|No|SUNKIST|SUNKIST|Lemon Drink|Boisson au citron|Lemonade|Limonade
10000496|5:1|0.3|No|No|SUNKIST|SUNKIST|Flavored Water|Eau aromatisée|Tropical Mango|Mangue tropicale
12278847|4:1|11.8|No|No|SUNKIST|SUNKIST|Juice|Jus|Orange Mango|Orange-mangue
10000650|4:1|11.8|No|No|SUNKIST|SUNKIST|Juice|Jus|Orange|Orange
12278849|4:1|11.8|No|No|SUNKIST|SUNKIST|Juice|Jus|Orange Pineapple|Orange-ananas
12306059|5:1|10.6|No|No|SUNKIST|SUNKIST|Juice|Jus|Passion Orange Guava|Fruit de la passion, orange et goyave 
12304976|5:1|8.6|No|No|SUNKIST|SUNKIST|Lemon Drink|Boisson au citron|Raspberry Lemonade|Limonade à la framboise
10000497|5:1|0.3|No|No|SUNKIST|SUNKIST|Flavored Water|Eau aromatisée|Strawberry Kiwi|Fraise-kiwi
10000530|5:1|0.3|No|No|SUNKIST|SUNKIST|Flavored Water|Eau aromatisée|Watermelon|Melon d'eau
10000805|11:1|0.15|No|No|NESTEA|NESTEA|Iced Tea|Thé glacé|Unsweet Iced Tea|Thé glacé non sucré
12249326|11:1|5.3|No|No|NESTEA|NESTEA|Iced Tea|Thé glacé|Raspberry Sweet Iced Tea|Thé glacé sucré à la framboise 
12240789|4:1|15.3|Yes|Yes|COFFEEMATE|COFFEEMATE|Iced Coffee|Café glacé|French Vanilla Iced Coffee|Café glacé à la vanille française
12240788|4:1|15.3|Yes|Yes|COFFEEMATE|COFFEEMATE|Iced Coffee|Café glacé|Café Mocha Iced Coffee|Café moka glacé 
12306048|5:1|11.5|No|No|NESTLE VITALITY|NESTLE VITALITY|Juice Drink|Boisson au jus|Apple|Pomme
12306355|5:1|11.2|No|No|NESTLE VITALITY|NESTLE VITALITY|Juice Drink|Boisson au jus|Citrus Peach|Agrumes et pêche 
12305403|4:1|9.9|No|No|NESTLE VITALITY|NESTLE VITALITY|Juice Drink|Boisson au jus|Cranberry|Canneberge 
12305406|4:1|10.2|No|No|NESTLE VITALITY|NESTLE VITALITY|Juice Drink|Boisson au jus|Cranberry|Canneberge
12305382|5:1|8.1|No|No|NESTLE VITALITY|NESTLE VITALITY|Juice Drink|Boisson au jus|Grape|Raisin
12306357|5:1|11.1|No|No|NESTLE VITALITY|NESTLE VITALITY|Juice Drink|Boisson au jus|Grape|Raisin
12305405|5:1|8.3|No|No|NESTLE VITALITY|NESTLE VITALITY|Lemon Drink|Boisson au citron|Lemonade|Limonade
12306356|5:1|8.5|No|No|NESTLE VITALITY|NESTLE VITALITY|Lemonade|Limonade|Lemonade|Limonade
10000696|4:1|11.9|No|No|NESTLE VITALITY|NESTLE VITALITY|Juice|Jus|Orange|Orange 
10000677|4:1|11.8|No|No|NESTLE VITALITY|NESTLE VITALITY|Juice|Jus|Orange|Orange
10000673|5:1|8.6|No|No|SUNKIST|SUNKIST|Lemon Drink|Boisson au citron|Pomegranate Lemonade|Limonade à la grenade
10000678|3:1|12.8|No|No|NESTLE VITALITY|NESTLE VITALITY|Juice|Jus|Pineapple|Ananas
12306029|5:1|10.6|No|No|NESTLE VITALITY|NESTLE VITALITY|Juice Drink|Boisson au jus|Passion Orange Guava|Fruit de la passion, orange et goyave 
12305378|5:1|9.8|No|No|NESTLE VITALITY|NESTLE VITALITY|Juice Drink|Boisson au jus|Fruit Punch|Punch aux fruits 
10000692|5:1|11.5|No|No|NESTLE VITALITY|NESTLE VITALITY|Juice|Jus|Apple|Pomme 
10000690|5:1|11.5|No|No|NESTLE VITALITY|NESTLE VITALITY|Juice|Jus|Apple|Pomme 
12305385|4:1|10.6|No|No|NESTLE VITALITY|NESTLE VITALITY|Juice Drink|Boisson au jus|Cranberry|Canneberge 
12305408|5:1|8.3|No|No|NESTLE VITALITY|NESTLE VITALITY|Lemonade|Limonade|Lemonade|Limonade
12305384|4:1|6.9|No|No|NESTLE VITALITY|NESTLE VITALITY|Juice Drink|Boisson au jus|Strawberry Kiwi|Fraise-kiwi 
12305402|4:1|9.2|No|No|NESTLE VITALITY|NESTLE VITALITY|Juice Drink|Boisson au jus|Ruby Red Grapefruit|Pamplemousse rose 
10000687|5:1|0.3|No|No|NESTLE VITALITY|NESTLE VITALITY|Flavored Water|Eau aromatisée|Blueberry Pomegranate Acai|Bleuet, grenade et açai
10000686|5:1|0.3|No|No|NESTLE VITALITY|NESTLE VITALITY|Flavored Water|Eau aromatisée|Grape Raspberry|Raisin-framboise
10000700|5:1|0.3|No|No|NESTLE VITALITY|NESTLE VITALITY|Flavored Water|Eau aromatisée|Lemon Lime|Citron-lime
10000702|5:1|0.3|No|No|NESTLE VITALITY|NESTLE VITALITY|Flavored Water|Eau aromatisée|Tropical Mango|Mangue tropicale
10000940|4:1|12.2|No|No|NESTLE VITALITY|NESTLE VITALITY|Juice|Jus|Orange|Orange
10000946|5:1|8.6|No|No|NESTLE VITALITY|NESTLE VITALITY|Juice|Jus|Pomegranate Lemonade|Limonade à la grenade
12305392|5:1|8.6|No|No|NESTLE VITALITY|NESTLE VITALITY|Lemonade|Limonade|Pink Lemonade|Limonade rose
10000962|||No|No|NESTLE VITALITY|NESTLE VITALITY|Juice Drink|Boisson au jus|Citrus Peach|Agrumes et pêche 
12305383|5:1|8.4|No|No|NESTLE VITALITY|NESTLE VITALITY|Lemonade|Limonade|Raspberry Lemonade|Limonade à la framboise
10000964|||No|No|NESTLE VITALITY|NESTLE VITALITY|Juice|Jus|Orange|Orange
10000701|5:1|0.3|No|No|NESTLE VITALITY|NESTLE VITALITY|Flavored Water|Eau aromatisée|Strawberry Kiwi|Fraise-kiwi
10000703|5:1|0.3|No|No|NESTLE VITALITY|NESTLE VITALITY|Flavored Water|Eau aromatisée|Watermelon|Melon d'eau
12305390|4:1|10.2|No|No|SUNKIST|SUNKIST|Juice Drink|Boisson au jus|Cranberry|Canneberge 
12305376|5:1|14.5|No|No|SUNKIST|SUNKIST|Juice Drink|Boisson au jus|Grape|Raisin 
12305375|5:1|11.1|No|No|SUNKIST|SUNKIST|Juice Drink|Boisson au jus|Grape|Raisin 
12306058|5:1|8.5|No|No|SUNKIST|SUNKIST|Lemonade|Limonade|Lemonade|Limonade
10000556|5:1|0.3|No|No|SUNKIST|SUNKIST|Flavored Water|Eau aromatisée|Lemon Lime|Citron-lime
10000557|5:1|0.3|No|No|SUNKIST|SUNKIST|Flavored Water|Eau aromatisée|Tropical Mango|Mangue tropicale
10000957|4:1|11.8|No|No|SUNKIST|SUNKIST|Juice|Jus|Orange|Orange
10000651|4:1|12.2|No|No|SUNKIST|SUNKIST|Juice|Jus|Orange|Orange 
10000652|4:1|11.8|No|No|SUNKIST|SUNKIST|Juice|Jus|Orange|Orange
10000664|3:1|12.8|No|No|SUNKIST|SUNKIST|Juice|Jus|Pineapple|Ananas 
12305349|5:1|8.6|No|No|SUNKIST|SUNKIST|Lemonade|Limonade|Pink Lemonade|Limonade rose 
12305348|5:1|9.8|No|No|SUNKIST|SUNKIST|Juice Drink|Boisson au jus|Fruit Punch|Punch aux fruits 
12305377|4:1|6.9|No|No|SUNKIST|SUNKIST|Juice Drink|Boisson au jus|Strawberry Kiwi|Fraise-kiwi 
10000558|5:1|8.5|No|No|SUNKIST|SUNKIST|Flavored Water|Eau aromatisée|Strawberry Kiwi|Fraise-kiwi
10000559|5:1|0.3|No|No|SUNKIST|SUNKIST|Flavored Water|Eau aromatisée|Watermelon|Melon d'eau
10000495|5:1|0.3|No|No|SUNKIST|SUNKIST|Flavored Water|Eau aromatisée|Lemon Lime|Citron-lime
10000804|11:1|5.1|No|No|NESTEA|NESTEA|Iced Tea|Thé glacé|Sweet Iced Tea|Thé glacé sucré
